Introducción al análisis de datos con R: Clase 4
…
Podríamos chequear los nuevos valores extremos. Para acceder al valor
máximo lo hacemos con filter() y max():

df_sin_outliers %>% 
  filter(anios_casados == max(anios_casados))

## # A tibble: 659 × 12
##    FECHA…¹ GENER…² GENER…³ FECHA…⁴ ...5  DIA_C…⁵ MES_C…⁶ ANIO_…⁷ DIA_MAT MES_MAT
##    <chr>   <chr>   <chr>   <chr>   <lgl>   <dbl> <chr>     <dbl>   <dbl> <chr>  
##  1 15MAR2… No dec… No dec… 12FEB1… NA         15 MAR        2018      12 FEB    
##  2 07MAR2… No dec… Femeni… 20APR1… NA          7 MAR        2018      20 APR    
##  3 21MAR2… Mascul… Femeni… 08OCT1… NA         21 MAR        2018       8 OCT    
##  4 21MAR2… No dec… No dec… 24AUG1… NA         21 MAR        2018      24 AUG    
##  5 22MAR2… No dec… No dec… 09MAR1… NA         22 MAR        2018       9 MAR    
##  6 07MAR2… No dec… No dec… 24MAY1… NA          7 MAR        2018      24 MAY    
##  7 09MAR2… No dec… No dec… 08JUN1… NA          9 MAR        2018       8 JUN    
##  8 14MAR2… No dec… No dec… 12JUL1… NA         14 MAR        2018      12 JUL    
##  9 19MAR2… No dec… No dec… 06APR1… NA         19 MAR        2018       6 APR    
## 10 19MAR2… No dec… No dec… 07DEC1… NA         19 MAR        2018       7 DEC    
## # … with 649 more rows, 2 more variables: ANIO_MAT <dbl>, anios_casados <dbl>,
## #   and abbreviated variable names ¹​FECHA_CREACION, ²​GENERO_1, ³​GENERO_2,
## #   ⁴​FECHA_MATRIMONIO, ⁵​DIA_CREACION, ⁶​MES_CREACION, ⁷​ANIO_CREACION

#659 casos que registran la mayor cantidad de años de casadxs

Valor mínimo con min():

(minimos <- df_sin_outliers %>% 
  filter(anios_casados == min(anios_casados)))

## # A tibble: 997 × 12
##    FECHA…¹ GENER…² GENER…³ FECHA…⁴ ...5  DIA_C…⁵ MES_C…⁶ ANIO_…⁷ DIA_MAT MES_MAT
##    <chr>   <chr>   <chr>   <chr>   <lgl>   <dbl> <chr>     <dbl>   <dbl> <chr>  
##  1 20MAR2… Mascul… Femeni… 07OCT2… NA         20 MAR        2018       7 OCT    
##  2 05MAR2… Mascul… Femeni… 25JUN2… NA          5 MAR        2018      25 JUN    
##  3 13MAR2… Mascul… Femeni… 19NOV2… NA         13 MAR        2018      19 NOV    
##  4 21MAR2… Mascul… Femeni… 15APR2… NA         21 MAR        2018      15 APR    
##  5 05MAR2… Mascul… Femeni… 13APR2… NA          5 MAR        2018      13 APR    
##  6 05MAR2… Mascul… Femeni… 18OCT2… NA          5 MAR        2018      18 OCT    
##  7 05MAR2… Mascul… Femeni… 10DEC2… NA          5 MAR        2018      10 DEC    
##  8 21MAR2… Mascul… Femeni… 02MAR2… NA         21 MAR        2018       2 MAR    
##  9 12MAR2… Mascul… Femeni… 01DEC2… NA         12 MAR        2018       1 DEC    
## 10 16MAR2… Mascul… Femeni… 23MAR2… NA         16 MAR        2018      23 MAR    
## # … with 987 more rows, 2 more variables: ANIO_MAT <dbl>, anios_casados <dbl>,
## #   and abbreviated variable names ¹​FECHA_CREACION, ²​GENERO_1, ³​GENERO_2,
## #   ⁴​FECHA_MATRIMONIO, ⁵​DIA_CREACION, ⁶​MES_CREACION, ⁷​ANIO_CREACION
…
